-- Merging decision tree log ---
manifest
ADDED from /Users/tdkhoa/Documents/Android/Kotlin/Examples/geofencing-api/app/src/main/AndroidManifest.xml:2:1-55:12
INJECTED from /Users/tdkhoa/Documents/Android/Kotlin/Examples/geofencing-api/app/src/main/AndroidManifest.xml:2:1-55:12
INJECTED from /Users/tdkhoa/Documents/Android/Kotlin/Examples/geofencing-api/app/src/main/AndroidManifest.xml:2:1-55:12
INJECTED from /Users/tdkhoa/Documents/Android/Kotlin/Examples/geofencing-api/app/src/main/AndroidManifest.xml:2:1-55:12
MERGED from [com.android.support:design:26.1.0] /Users/tdkhoa/.gradle/caches/transforms-1/files-1.1/design-26.1.0.aar/e50e783500a3bf5c20be85150e867091/AndroidManifest.xml:17:1-31:12
MERGED from [com.android.support:appcompat-v7:26.1.0] /Users/tdkhoa/.gradle/caches/transforms-1/files-1.1/appcompat-v7-26.1.0.aar/0a04abc31b7bf5c5a01d989192abc156/AndroidManifest.xml:17:1-31:12
MERGED from [com.google.android.gms:play-services-maps:16.0.0] /Users/tdkhoa/.gradle/caches/transforms-1/files-1.1/play-services-maps-16.0.0.aar/3cdbee4b24582b46f6c97f8e2328bf33/AndroidManifest.xml:17:1-32:12
MERGED from [com.google.android.gms:play-services-location:16.0.0] /Users/tdkhoa/.gradle/caches/transforms-1/files-1.1/play-services-location-16.0.0.aar/a1bf28727bf9796da6189339cefa915e/AndroidManifest.xml:2:1-9:12
MERGED from [com.android.support:animated-vector-drawable:26.1.0] /Users/tdkhoa/.gradle/caches/transforms-1/files-1.1/animated-vector-drawable-26.1.0.aar/4d771d6145e1c26aeb3a5bf28a46f89d/AndroidManifest.xml:17:1-28:12
MERGED from [com.android.support:support-vector-drawable:26.1.0] /Users/tdkhoa/.gradle/caches/transforms-1/files-1.1/support-vector-drawable-26.1.0.aar/e77e1bccfa99be20c72f591a6568abe1/AndroidManifest.xml:17:1-28:12
MERGED from [com.android.support:recyclerview-v7:26.1.0] /Users/tdkhoa/.gradle/caches/transforms-1/files-1.1/recyclerview-v7-26.1.0.aar/f2834b297f53872c02ced7217c6bb02c/AndroidManifest.xml:17:1-28:12
MERGED from [com.android.support:transition:26.1.0] /Users/tdkhoa/.gradle/caches/transforms-1/files-1.1/transition-26.1.0.aar/5ee3cc03e46ac92e7904873a1d8fc981/AndroidManifest.xml:17:1-28:12
MERGED from [com.google.android.gms:play-services-base:16.0.1] /Users/tdkhoa/.gradle/caches/transforms-1/files-1.1/play-services-base-16.0.1.aar/7b4b34697835dab76bdf2aa35a283170/AndroidManifest.xml:17:1-29:12
MERGED from [com.google.android.gms:play-services-places-placereport:16.0.0] /Users/tdkhoa/.gradle/caches/transforms-1/files-1.1/play-services-places-placereport-16.0.0.aar/4551f77abf3dcfd9ae1f230d92e07a12/AndroidManifest.xml:17:1-24:12
MERGED from [com.google.android.gms:play-services-tasks:16.0.1] /Users/tdkhoa/.gradle/caches/transforms-1/files-1.1/play-services-tasks-16.0.1.aar/c6cf96b7cd93fb867236ac81e4b81553/AndroidManifest.xml:2:1-9:12
MERGED from [com.google.android.gms:play-services-basement:16.0.1] /Users/tdkhoa/.gradle/caches/transforms-1/files-1.1/play-services-basement-16.0.1.aar/a71b2b3ec89e8f26916301af30afdcc0/AndroidManifest.xml:17:1-28:12
MERGED from [com.android.support:support-v4:26.1.0] /Users/tdkhoa/.gradle/caches/transforms-1/files-1.1/support-v4-26.1.0.aar/3b5c1ff3f0413d13edac067bf2a91504/AndroidManifest.xml:17:1-31:12
MERGED from [com.android.support:support-media-compat:26.1.0] /Users/tdkhoa/.gradle/caches/transforms-1/files-1.1/support-media-compat-26.1.0.aar/1469537dc5d0d1061557114c0d4f2f78/AndroidManifest.xml:17:1-31:12
MERGED from [com.android.support:support-fragment:26.1.0] /Users/tdkhoa/.gradle/caches/transforms-1/files-1.1/support-fragment-26.1.0.aar/63fc2e08cc2279c532535ae2c66f8cfd/AndroidManifest.xml:17:1-31:12
MERGED from [com.android.support:support-core-utils:26.1.0] /Users/tdkhoa/.gradle/caches/transforms-1/files-1.1/support-core-utils-26.1.0.aar/0cb08d3c3ab8870f63173ecbcff91ca9/AndroidManifest.xml:17:1-31:12
MERGED from [com.android.support:support-core-ui:26.1.0] /Users/tdkhoa/.gradle/caches/transforms-1/files-1.1/support-core-ui-26.1.0.aar/f7161f5d3da7926b05a4a455e11a053b/AndroidManifest.xml:17:1-31:12
MERGED from [com.android.support:support-compat:26.1.0] /Users/tdkhoa/.gradle/caches/transforms-1/files-1.1/support-compat-26.1.0.aar/746d2ebc2f27bfccb8c633309c2548b9/AndroidManifest.xml:17:1-31:12
MERGED from [android.arch.lifecycle:runtime:1.0.0] /Users/tdkhoa/.gradle/caches/transforms-1/files-1.1/runtime-1.0.0.aar/d4587689addb9086008976889e8bab47/AndroidManifest.xml:17:1-30:12
INJECTED from /Users/tdkhoa/Documents/Android/Kotlin/Examples/geofencing-api/app/src/main/AndroidManifest.xml:2:1-55:12
INJECTED from /Users/tdkhoa/Documents/Android/Kotlin/Examples/geofencing-api/app/src/main/AndroidManifest.xml:2:1-55:12
INJECTED from /Users/tdkhoa/Documents/Android/Kotlin/Examples/geofencing-api/app/src/main/AndroidManifest.xml:2:1-55:12
	package
		ADDED from /Users/tdkhoa/Documents/Android/Kotlin/Examples/geofencing-api/app/src/main/AndroidManifest.xml:4:3-52
		INJECTED from /Users/tdkhoa/Documents/Android/Kotlin/Examples/geofencing-api/app/src/main/AndroidManifest.xml
		INJECTED from /Users/tdkhoa/Documents/Android/Kotlin/Examples/geofencing-api/app/src/main/AndroidManifest.xml
	android:versionName
		INJECTED from /Users/tdkhoa/Documents/Android/Kotlin/Examples/geofencing-api/app/src/main/AndroidManifest.xml
		ADDED from /Users/tdkhoa/Documents/Android/Kotlin/Examples/geofencing-api/app/src/main/AndroidManifest.xml:2:1-55:12
		INJECTED from /Users/tdkhoa/Documents/Android/Kotlin/Examples/geofencing-api/app/src/main/AndroidManifest.xml
	xmlns:tools
		ADDED from /Users/tdkhoa/Documents/Android/Kotlin/Examples/geofencing-api/app/src/main/AndroidManifest.xml:3:3-49
	android:versionCode
		INJECTED from /Users/tdkhoa/Documents/Android/Kotlin/Examples/geofencing-api/app/src/main/AndroidManifest.xml
		ADDED from /Users/tdkhoa/Documents/Android/Kotlin/Examples/geofencing-api/app/src/main/AndroidManifest.xml:2:1-55:12
		INJECTED from /Users/tdkhoa/Documents/Android/Kotlin/Examples/geofencing-api/app/src/main/AndroidManifest.xml
	xmlns:android
		ADDED from /Users/tdkhoa/Documents/Android/Kotlin/Examples/geofencing-api/app/src/main/AndroidManifest.xml:2:11-69
uses-permission#android.permission.INTERNET
ADDED from /Users/tdkhoa/Documents/Android/Kotlin/Examples/geofencing-api/app/src/main/AndroidManifest.xml:6:3-65
MERGED from [com.google.android.gms:play-services-maps:16.0.0] /Users/tdkhoa/.gradle/caches/transforms-1/files-1.1/play-services-maps-16.0.0.aar/3cdbee4b24582b46f6c97f8e2328bf33/AndroidManifest.xml:24:5-67
MERGED from [com.google.android.gms:play-services-maps:16.0.0] /Users/tdkhoa/.gradle/caches/transforms-1/files-1.1/play-services-maps-16.0.0.aar/3cdbee4b24582b46f6c97f8e2328bf33/AndroidManifest.xml:24:5-67
	android:name
		ADDED from /Users/tdkhoa/Documents/Android/Kotlin/Examples/geofencing-api/app/src/main/AndroidManifest.xml:6:20-62
uses-permission#android.permission.ACCESS_FINE_LOCATION
ADDED from /Users/tdkhoa/Documents/Android/Kotlin/Examples/geofencing-api/app/src/main/AndroidManifest.xml:7:3-77
	android:name
		ADDED from /Users/tdkhoa/Documents/Android/Kotlin/Examples/geofencing-api/app/src/main/AndroidManifest.xml:7:20-74
uses-permission#android.permission.WAKE_LOCK
ADDED from /Users/tdkhoa/Documents/Android/Kotlin/Examples/geofencing-api/app/src/main/AndroidManifest.xml:8:3-66
	android:name
		ADDED from /Users/tdkhoa/Documents/Android/Kotlin/Examples/geofencing-api/app/src/main/AndroidManifest.xml:8:20-63
uses-permission#android.permission.ACCESS_COARSE_LOCATION
ADDED from /Users/tdkhoa/Documents/Android/Kotlin/Examples/geofencing-api/app/src/main/AndroidManifest.xml:9:3-79
	android:name
		ADDED from /Users/tdkhoa/Documents/Android/Kotlin/Examples/geofencing-api/app/src/main/AndroidManifest.xml:9:20-76
uses-permission#android.permission.ACCESS_BACKGROUND_LOCATION
ADDED from /Users/tdkhoa/Documents/Android/Kotlin/Examples/geofencing-api/app/src/main/AndroidManifest.xml:10:3-83
	android:name
		ADDED from /Users/tdkhoa/Documents/Android/Kotlin/Examples/geofencing-api/app/src/main/AndroidManifest.xml:10:20-80
application
ADDED from /Users/tdkhoa/Documents/Android/Kotlin/Examples/geofencing-api/app/src/main/AndroidManifest.xml:13:3-53:17
MERGED from [com.android.support:design:26.1.0] /Users/tdkhoa/.gradle/caches/transforms-1/files-1.1/design-26.1.0.aar/e50e783500a3bf5c20be85150e867091/AndroidManifest.xml:25:5-29:19
MERGED from [com.android.support:design:26.1.0] /Users/tdkhoa/.gradle/caches/transforms-1/files-1.1/design-26.1.0.aar/e50e783500a3bf5c20be85150e867091/AndroidManifest.xml:25:5-29:19
MERGED from [com.android.support:appcompat-v7:26.1.0] /Users/tdkhoa/.gradle/caches/transforms-1/files-1.1/appcompat-v7-26.1.0.aar/0a04abc31b7bf5c5a01d989192abc156/AndroidManifest.xml:25:5-29:19
MERGED from [com.android.support:appcompat-v7:26.1.0] /Users/tdkhoa/.gradle/caches/transforms-1/files-1.1/appcompat-v7-26.1.0.aar/0a04abc31b7bf5c5a01d989192abc156/AndroidManifest.xml:25:5-29:19
MERGED from [com.google.android.gms:play-services-maps:16.0.0] /Users/tdkhoa/.gradle/caches/transforms-1/files-1.1/play-services-maps-16.0.0.aar/3cdbee4b24582b46f6c97f8e2328bf33/AndroidManifest.xml:30:5-20
MERGED from [com.google.android.gms:play-services-maps:16.0.0] /Users/tdkhoa/.gradle/caches/transforms-1/files-1.1/play-services-maps-16.0.0.aar/3cdbee4b24582b46f6c97f8e2328bf33/AndroidManifest.xml:30:5-20
MERGED from [com.google.android.gms:play-services-location:16.0.0] /Users/tdkhoa/.gradle/caches/transforms-1/files-1.1/play-services-location-16.0.0.aar/a1bf28727bf9796da6189339cefa915e/AndroidManifest.xml:7:5-20
MERGED from [com.google.android.gms:play-services-location:16.0.0] /Users/tdkhoa/.gradle/caches/transforms-1/files-1.1/play-services-location-16.0.0.aar/a1bf28727bf9796da6189339cefa915e/AndroidManifest.xml:7:5-20
MERGED from [com.android.support:animated-vector-drawable:26.1.0] /Users/tdkhoa/.gradle/caches/transforms-1/files-1.1/animated-vector-drawable-26.1.0.aar/4d771d6145e1c26aeb3a5bf28a46f89d/AndroidManifest.xml:22:5-26:19
MERGED from [com.android.support:animated-vector-drawable:26.1.0] /Users/tdkhoa/.gradle/caches/transforms-1/files-1.1/animated-vector-drawable-26.1.0.aar/4d771d6145e1c26aeb3a5bf28a46f89d/AndroidManifest.xml:22:5-26:19
MERGED from [com.android.support:support-vector-drawable:26.1.0] /Users/tdkhoa/.gradle/caches/transforms-1/files-1.1/support-vector-drawable-26.1.0.aar/e77e1bccfa99be20c72f591a6568abe1/AndroidManifest.xml:22:5-26:19
MERGED from [com.android.support:support-vector-drawable:26.1.0] /Users/tdkhoa/.gradle/caches/transforms-1/files-1.1/support-vector-drawable-26.1.0.aar/e77e1bccfa99be20c72f591a6568abe1/AndroidManifest.xml:22:5-26:19
MERGED from [com.android.support:recyclerview-v7:26.1.0] /Users/tdkhoa/.gradle/caches/transforms-1/files-1.1/recyclerview-v7-26.1.0.aar/f2834b297f53872c02ced7217c6bb02c/AndroidManifest.xml:22:5-26:19
MERGED from [com.android.support:recyclerview-v7:26.1.0] /Users/tdkhoa/.gradle/caches/transforms-1/files-1.1/recyclerview-v7-26.1.0.aar/f2834b297f53872c02ced7217c6bb02c/AndroidManifest.xml:22:5-26:19
MERGED from [com.android.support:transition:26.1.0] /Users/tdkhoa/.gradle/caches/transforms-1/files-1.1/transition-26.1.0.aar/5ee3cc03e46ac92e7904873a1d8fc981/AndroidManifest.xml:22:5-26:19
MERGED from [com.android.support:transition:26.1.0] /Users/tdkhoa/.gradle/caches/transforms-1/files-1.1/transition-26.1.0.aar/5ee3cc03e46ac92e7904873a1d8fc981/AndroidManifest.xml:22:5-26:19
MERGED from [com.google.android.gms:play-services-base:16.0.1] /Users/tdkhoa/.gradle/caches/transforms-1/files-1.1/play-services-base-16.0.1.aar/7b4b34697835dab76bdf2aa35a283170/AndroidManifest.xml:22:5-27:19
MERGED from [com.google.android.gms:play-services-base:16.0.1] /Users/tdkhoa/.gradle/caches/transforms-1/files-1.1/play-services-base-16.0.1.aar/7b4b34697835dab76bdf2aa35a283170/AndroidManifest.xml:22:5-27:19
MERGED from [com.google.android.gms:play-services-places-placereport:16.0.0] /Users/tdkhoa/.gradle/caches/transforms-1/files-1.1/play-services-places-placereport-16.0.0.aar/4551f77abf3dcfd9ae1f230d92e07a12/AndroidManifest.xml:22:5-20
MERGED from [com.google.android.gms:play-services-places-placereport:16.0.0] /Users/tdkhoa/.gradle/caches/transforms-1/files-1.1/play-services-places-placereport-16.0.0.aar/4551f77abf3dcfd9ae1f230d92e07a12/AndroidManifest.xml:22:5-20
MERGED from [com.google.android.gms:play-services-tasks:16.0.1] /Users/tdkhoa/.gradle/caches/transforms-1/files-1.1/play-services-tasks-16.0.1.aar/c6cf96b7cd93fb867236ac81e4b81553/AndroidManifest.xml:7:5-20
MERGED from [com.google.android.gms:play-services-tasks:16.0.1] /Users/tdkhoa/.gradle/caches/transforms-1/files-1.1/play-services-tasks-16.0.1.aar/c6cf96b7cd93fb867236ac81e4b81553/AndroidManifest.xml:7:5-20
MERGED from [com.google.android.gms:play-services-basement:16.0.1] /Users/tdkhoa/.gradle/caches/transforms-1/files-1.1/play-services-basement-16.0.1.aar/a71b2b3ec89e8f26916301af30afdcc0/AndroidManifest.xml:22:5-26:19
MERGED from [com.google.android.gms:play-services-basement:16.0.1] /Users/tdkhoa/.gradle/caches/transforms-1/files-1.1/play-services-basement-16.0.1.aar/a71b2b3ec89e8f26916301af30afdcc0/AndroidManifest.xml:22:5-26:19
MERGED from [com.android.support:support-v4:26.1.0] /Users/tdkhoa/.gradle/caches/transforms-1/files-1.1/support-v4-26.1.0.aar/3b5c1ff3f0413d13edac067bf2a91504/AndroidManifest.xml:25:5-29:19
MERGED from [com.android.support:support-v4:26.1.0] /Users/tdkhoa/.gradle/caches/transforms-1/files-1.1/support-v4-26.1.0.aar/3b5c1ff3f0413d13edac067bf2a91504/AndroidManifest.xml:25:5-29:19
MERGED from [com.android.support:support-media-compat:26.1.0] /Users/tdkhoa/.gradle/caches/transforms-1/files-1.1/support-media-compat-26.1.0.aar/1469537dc5d0d1061557114c0d4f2f78/AndroidManifest.xml:25:5-29:19
MERGED from [com.android.support:support-media-compat:26.1.0] /Users/tdkhoa/.gradle/caches/transforms-1/files-1.1/support-media-compat-26.1.0.aar/1469537dc5d0d1061557114c0d4f2f78/AndroidManifest.xml:25:5-29:19
MERGED from [com.android.support:support-fragment:26.1.0] /Users/tdkhoa/.gradle/caches/transforms-1/files-1.1/support-fragment-26.1.0.aar/63fc2e08cc2279c532535ae2c66f8cfd/AndroidManifest.xml:25:5-29:19
MERGED from [com.android.support:support-fragment:26.1.0] /Users/tdkhoa/.gradle/caches/transforms-1/files-1.1/support-fragment-26.1.0.aar/63fc2e08cc2279c532535ae2c66f8cfd/AndroidManifest.xml:25:5-29:19
MERGED from [com.android.support:support-core-utils:26.1.0] /Users/tdkhoa/.gradle/caches/transforms-1/files-1.1/support-core-utils-26.1.0.aar/0cb08d3c3ab8870f63173ecbcff91ca9/AndroidManifest.xml:25:5-29:19
MERGED from [com.android.support:support-core-utils:26.1.0] /Users/tdkhoa/.gradle/caches/transforms-1/files-1.1/support-core-utils-26.1.0.aar/0cb08d3c3ab8870f63173ecbcff91ca9/AndroidManifest.xml:25:5-29:19
MERGED from [com.android.support:support-core-ui:26.1.0] /Users/tdkhoa/.gradle/caches/transforms-1/files-1.1/support-core-ui-26.1.0.aar/f7161f5d3da7926b05a4a455e11a053b/AndroidManifest.xml:25:5-29:19
MERGED from [com.android.support:support-core-ui:26.1.0] /Users/tdkhoa/.gradle/caches/transforms-1/files-1.1/support-core-ui-26.1.0.aar/f7161f5d3da7926b05a4a455e11a053b/AndroidManifest.xml:25:5-29:19
MERGED from [com.android.support:support-compat:26.1.0] /Users/tdkhoa/.gradle/caches/transforms-1/files-1.1/support-compat-26.1.0.aar/746d2ebc2f27bfccb8c633309c2548b9/AndroidManifest.xml:25:5-29:19
MERGED from [com.android.support:support-compat:26.1.0] /Users/tdkhoa/.gradle/caches/transforms-1/files-1.1/support-compat-26.1.0.aar/746d2ebc2f27bfccb8c633309c2548b9/AndroidManifest.xml:25:5-29:19
MERGED from [android.arch.lifecycle:runtime:1.0.0] /Users/tdkhoa/.gradle/caches/transforms-1/files-1.1/runtime-1.0.0.aar/d4587689addb9086008976889e8bab47/AndroidManifest.xml:24:5-28:19
MERGED from [android.arch.lifecycle:runtime:1.0.0] /Users/tdkhoa/.gradle/caches/transforms-1/files-1.1/runtime-1.0.0.aar/d4587689addb9086008976889e8bab47/AndroidManifest.xml:24:5-28:19
	android:supportsRtl
		ADDED from /Users/tdkhoa/Documents/Android/Kotlin/Examples/geofencing-api/app/src/main/AndroidManifest.xml:19:5-31
	android:label
		ADDED from /Users/tdkhoa/Documents/Android/Kotlin/Examples/geofencing-api/app/src/main/AndroidManifest.xml:17:5-37
	tools:ignore
		ADDED from /Users/tdkhoa/Documents/Android/Kotlin/Examples/geofencing-api/app/src/main/AndroidManifest.xml:21:5-44
	android:roundIcon
		ADDED from /Users/tdkhoa/Documents/Android/Kotlin/Examples/geofencing-api/app/src/main/AndroidManifest.xml:18:5-50
	android:icon
		ADDED from /Users/tdkhoa/Documents/Android/Kotlin/Examples/geofencing-api/app/src/main/AndroidManifest.xml:16:5-39
	android:allowBackup
		ADDED from /Users/tdkhoa/Documents/Android/Kotlin/Examples/geofencing-api/app/src/main/AndroidManifest.xml:15:5-31
	android:theme
		ADDED from /Users/tdkhoa/Documents/Android/Kotlin/Examples/geofencing-api/app/src/main/AndroidManifest.xml:20:5-36
	android:name
		ADDED from /Users/tdkhoa/Documents/Android/Kotlin/Examples/geofencing-api/app/src/main/AndroidManifest.xml:14:5-32
meta-data#com.google.android.geo.API_KEY
ADDED from /Users/tdkhoa/Documents/Android/Kotlin/Examples/geofencing-api/app/src/main/AndroidManifest.xml:31:5-33:49
	android:value
		ADDED from /Users/tdkhoa/Documents/Android/Kotlin/Examples/geofencing-api/app/src/main/AndroidManifest.xml:33:7-46
	android:name
		ADDED from /Users/tdkhoa/Documents/Android/Kotlin/Examples/geofencing-api/app/src/main/AndroidManifest.xml:32:7-52
activity#com.android.raywenderlich.remindmethere.MainActivity
ADDED from /Users/tdkhoa/Documents/Android/Kotlin/Examples/geofencing-api/app/src/main/AndroidManifest.xml:35:5-43:16
	android:name
		ADDED from /Users/tdkhoa/Documents/Android/Kotlin/Examples/geofencing-api/app/src/main/AndroidManifest.xml:35:15-43
intent-filter#action:name:android.intent.action.MAIN+category:name:android.intent.category.LAUNCHER
ADDED from /Users/tdkhoa/Documents/Android/Kotlin/Examples/geofencing-api/app/src/main/AndroidManifest.xml:37:7-41:23
action#android.intent.action.MAIN
ADDED from /Users/tdkhoa/Documents/Android/Kotlin/Examples/geofencing-api/app/src/main/AndroidManifest.xml:38:9-61
	android:name
		ADDED from /Users/tdkhoa/Documents/Android/Kotlin/Examples/geofencing-api/app/src/main/AndroidManifest.xml:38:17-58
category#android.intent.category.LAUNCHER
ADDED from /Users/tdkhoa/Documents/Android/Kotlin/Examples/geofencing-api/app/src/main/AndroidManifest.xml:40:9-69
	android:name
		ADDED from /Users/tdkhoa/Documents/Android/Kotlin/Examples/geofencing-api/app/src/main/AndroidManifest.xml:40:19-66
activity#com.android.raywenderlich.remindmethere.NewReminderActivity
ADDED from /Users/tdkhoa/Documents/Android/Kotlin/Examples/geofencing-api/app/src/main/AndroidManifest.xml:44:5-53
	android:name
		ADDED from /Users/tdkhoa/Documents/Android/Kotlin/Examples/geofencing-api/app/src/main/AndroidManifest.xml:44:15-50
receiver#com.android.raywenderlich.remindmethere.GeofenceBroadcastReceiver
ADDED from /Users/tdkhoa/Documents/Android/Kotlin/Examples/geofencing-api/app/src/main/AndroidManifest.xml:45:5-48:33
	android:enabled
		ADDED from /Users/tdkhoa/Documents/Android/Kotlin/Examples/geofencing-api/app/src/main/AndroidManifest.xml:47:7-29
	android:exported
		ADDED from /Users/tdkhoa/Documents/Android/Kotlin/Examples/geofencing-api/app/src/main/AndroidManifest.xml:48:7-30
	android:name
		ADDED from /Users/tdkhoa/Documents/Android/Kotlin/Examples/geofencing-api/app/src/main/AndroidManifest.xml:46:7-48
service#com.android.raywenderlich.remindmethere.GeofenceTransitionsJobIntentService
ADDED from /Users/tdkhoa/Documents/Android/Kotlin/Examples/geofencing-api/app/src/main/AndroidManifest.xml:49:5-52:66
	android:exported
		ADDED from /Users/tdkhoa/Documents/Android/Kotlin/Examples/geofencing-api/app/src/main/AndroidManifest.xml:51:7-30
	android:permission
		ADDED from /Users/tdkhoa/Documents/Android/Kotlin/Examples/geofencing-api/app/src/main/AndroidManifest.xml:52:7-63
	android:name
		ADDED from /Users/tdkhoa/Documents/Android/Kotlin/Examples/geofencing-api/app/src/main/AndroidManifest.xml:50:7-58
uses-sdk
INJECTED from /Users/tdkhoa/Documents/Android/Kotlin/Examples/geofencing-api/app/src/main/AndroidManifest.xml reason: use-sdk injection requested
INJECTED from /Users/tdkhoa/Documents/Android/Kotlin/Examples/geofencing-api/app/src/main/AndroidManifest.xml
INJECTED from /Users/tdkhoa/Documents/Android/Kotlin/Examples/geofencing-api/app/src/main/AndroidManifest.xml
MERGED from [com.android.support:design:26.1.0] /Users/tdkhoa/.gradle/caches/transforms-1/files-1.1/design-26.1.0.aar/e50e783500a3bf5c20be85150e867091/AndroidManifest.xml:21:5-23:62
MERGED from [com.android.support:design:26.1.0] /Users/tdkhoa/.gradle/caches/transforms-1/files-1.1/design-26.1.0.aar/e50e783500a3bf5c20be85150e867091/AndroidManifest.xml:21:5-23:62
MERGED from [com.android.support:appcompat-v7:26.1.0] /Users/tdkhoa/.gradle/caches/transforms-1/files-1.1/appcompat-v7-26.1.0.aar/0a04abc31b7bf5c5a01d989192abc156/AndroidManifest.xml:21:5-23:78
MERGED from [com.android.support:appcompat-v7:26.1.0] /Users/tdkhoa/.gradle/caches/transforms-1/files-1.1/appcompat-v7-26.1.0.aar/0a04abc31b7bf5c5a01d989192abc156/AndroidManifest.xml:21:5-23:78
MERGED from [com.google.android.gms:play-services-maps:16.0.0] /Users/tdkhoa/.gradle/caches/transforms-1/files-1.1/play-services-maps-16.0.0.aar/3cdbee4b24582b46f6c97f8e2328bf33/AndroidManifest.xml:20:5-44
MERGED from [com.google.android.gms:play-services-maps:16.0.0] /Users/tdkhoa/.gradle/caches/transforms-1/files-1.1/play-services-maps-16.0.0.aar/3cdbee4b24582b46f6c97f8e2328bf33/AndroidManifest.xml:20:5-44
MERGED from [com.google.android.gms:play-services-location:16.0.0] /Users/tdkhoa/.gradle/caches/transforms-1/files-1.1/play-services-location-16.0.0.aar/a1bf28727bf9796da6189339cefa915e/AndroidManifest.xml:5:5-44
MERGED from [com.google.android.gms:play-services-location:16.0.0] /Users/tdkhoa/.gradle/caches/transforms-1/files-1.1/play-services-location-16.0.0.aar/a1bf28727bf9796da6189339cefa915e/AndroidManifest.xml:5:5-44
MERGED from [com.android.support:animated-vector-drawable:26.1.0] /Users/tdkhoa/.gradle/caches/transforms-1/files-1.1/animated-vector-drawable-26.1.0.aar/4d771d6145e1c26aeb3a5bf28a46f89d/AndroidManifest.xml:20:5-44
MERGED from [com.android.support:animated-vector-drawable:26.1.0] /Users/tdkhoa/.gradle/caches/transforms-1/files-1.1/animated-vector-drawable-26.1.0.aar/4d771d6145e1c26aeb3a5bf28a46f89d/AndroidManifest.xml:20:5-44
MERGED from [com.android.support:support-vector-drawable:26.1.0] /Users/tdkhoa/.gradle/caches/transforms-1/files-1.1/support-vector-drawable-26.1.0.aar/e77e1bccfa99be20c72f591a6568abe1/AndroidManifest.xml:20:5-44
MERGED from [com.android.support:support-vector-drawable:26.1.0] /Users/tdkhoa/.gradle/caches/transforms-1/files-1.1/support-vector-drawable-26.1.0.aar/e77e1bccfa99be20c72f591a6568abe1/AndroidManifest.xml:20:5-44
MERGED from [com.android.support:recyclerview-v7:26.1.0] /Users/tdkhoa/.gradle/caches/transforms-1/files-1.1/recyclerview-v7-26.1.0.aar/f2834b297f53872c02ced7217c6bb02c/AndroidManifest.xml:20:5-44
MERGED from [com.android.support:recyclerview-v7:26.1.0] /Users/tdkhoa/.gradle/caches/transforms-1/files-1.1/recyclerview-v7-26.1.0.aar/f2834b297f53872c02ced7217c6bb02c/AndroidManifest.xml:20:5-44
MERGED from [com.android.support:transition:26.1.0] /Users/tdkhoa/.gradle/caches/transforms-1/files-1.1/transition-26.1.0.aar/5ee3cc03e46ac92e7904873a1d8fc981/AndroidManifest.xml:20:5-44
MERGED from [com.android.support:transition:26.1.0] /Users/tdkhoa/.gradle/caches/transforms-1/files-1.1/transition-26.1.0.aar/5ee3cc03e46ac92e7904873a1d8fc981/AndroidManifest.xml:20:5-44
MERGED from [com.google.android.gms:play-services-base:16.0.1] /Users/tdkhoa/.gradle/caches/transforms-1/files-1.1/play-services-base-16.0.1.aar/7b4b34697835dab76bdf2aa35a283170/AndroidManifest.xml:20:5-44
MERGED from [com.google.android.gms:play-services-base:16.0.1] /Users/tdkhoa/.gradle/caches/transforms-1/files-1.1/play-services-base-16.0.1.aar/7b4b34697835dab76bdf2aa35a283170/AndroidManifest.xml:20:5-44
MERGED from [com.google.android.gms:play-services-places-placereport:16.0.0] /Users/tdkhoa/.gradle/caches/transforms-1/files-1.1/play-services-places-placereport-16.0.0.aar/4551f77abf3dcfd9ae1f230d92e07a12/AndroidManifest.xml:20:5-44
MERGED from [com.google.android.gms:play-services-places-placereport:16.0.0] /Users/tdkhoa/.gradle/caches/transforms-1/files-1.1/play-services-places-placereport-16.0.0.aar/4551f77abf3dcfd9ae1f230d92e07a12/AndroidManifest.xml:20:5-44
MERGED from [com.google.android.gms:play-services-tasks:16.0.1] /Users/tdkhoa/.gradle/caches/transforms-1/files-1.1/play-services-tasks-16.0.1.aar/c6cf96b7cd93fb867236ac81e4b81553/AndroidManifest.xml:5:5-44
MERGED from [com.google.android.gms:play-services-tasks:16.0.1] /Users/tdkhoa/.gradle/caches/transforms-1/files-1.1/play-services-tasks-16.0.1.aar/c6cf96b7cd93fb867236ac81e4b81553/AndroidManifest.xml:5:5-44
MERGED from [com.google.android.gms:play-services-basement:16.0.1] /Users/tdkhoa/.gradle/caches/transforms-1/files-1.1/play-services-basement-16.0.1.aar/a71b2b3ec89e8f26916301af30afdcc0/AndroidManifest.xml:20:5-44
MERGED from [com.google.android.gms:play-services-basement:16.0.1] /Users/tdkhoa/.gradle/caches/transforms-1/files-1.1/play-services-basement-16.0.1.aar/a71b2b3ec89e8f26916301af30afdcc0/AndroidManifest.xml:20:5-44
MERGED from [com.android.support:support-v4:26.1.0] /Users/tdkhoa/.gradle/caches/transforms-1/files-1.1/support-v4-26.1.0.aar/3b5c1ff3f0413d13edac067bf2a91504/AndroidManifest.xml:21:5-23:54
MERGED from [com.android.support:support-v4:26.1.0] /Users/tdkhoa/.gradle/caches/transforms-1/files-1.1/support-v4-26.1.0.aar/3b5c1ff3f0413d13edac067bf2a91504/AndroidManifest.xml:21:5-23:54
MERGED from [com.android.support:support-media-compat:26.1.0] /Users/tdkhoa/.gradle/caches/transforms-1/files-1.1/support-media-compat-26.1.0.aar/1469537dc5d0d1061557114c0d4f2f78/AndroidManifest.xml:21:5-23:63
MERGED from [com.android.support:support-media-compat:26.1.0] /Users/tdkhoa/.gradle/caches/transforms-1/files-1.1/support-media-compat-26.1.0.aar/1469537dc5d0d1061557114c0d4f2f78/AndroidManifest.xml:21:5-23:63
MERGED from [com.android.support:support-fragment:26.1.0] /Users/tdkhoa/.gradle/caches/transforms-1/files-1.1/support-fragment-26.1.0.aar/63fc2e08cc2279c532535ae2c66f8cfd/AndroidManifest.xml:21:5-23:60
MERGED from [com.android.support:support-fragment:26.1.0] /Users/tdkhoa/.gradle/caches/transforms-1/files-1.1/support-fragment-26.1.0.aar/63fc2e08cc2279c532535ae2c66f8cfd/AndroidManifest.xml:21:5-23:60
MERGED from [com.android.support:support-core-utils:26.1.0] /Users/tdkhoa/.gradle/caches/transforms-1/files-1.1/support-core-utils-26.1.0.aar/0cb08d3c3ab8870f63173ecbcff91ca9/AndroidManifest.xml:21:5-23:61
MERGED from [com.android.support:support-core-utils:26.1.0] /Users/tdkhoa/.gradle/caches/transforms-1/files-1.1/support-core-utils-26.1.0.aar/0cb08d3c3ab8870f63173ecbcff91ca9/AndroidManifest.xml:21:5-23:61
MERGED from [com.android.support:support-core-ui:26.1.0] /Users/tdkhoa/.gradle/caches/transforms-1/files-1.1/support-core-ui-26.1.0.aar/f7161f5d3da7926b05a4a455e11a053b/AndroidManifest.xml:21:5-23:58
MERGED from [com.android.support:support-core-ui:26.1.0] /Users/tdkhoa/.gradle/caches/transforms-1/files-1.1/support-core-ui-26.1.0.aar/f7161f5d3da7926b05a4a455e11a053b/AndroidManifest.xml:21:5-23:58
MERGED from [com.android.support:support-compat:26.1.0] /Users/tdkhoa/.gradle/caches/transforms-1/files-1.1/support-compat-26.1.0.aar/746d2ebc2f27bfccb8c633309c2548b9/AndroidManifest.xml:21:5-23:58
MERGED from [com.android.support:support-compat:26.1.0] /Users/tdkhoa/.gradle/caches/transforms-1/files-1.1/support-compat-26.1.0.aar/746d2ebc2f27bfccb8c633309c2548b9/AndroidManifest.xml:21:5-23:58
MERGED from [android.arch.lifecycle:runtime:1.0.0] /Users/tdkhoa/.gradle/caches/transforms-1/files-1.1/runtime-1.0.0.aar/d4587689addb9086008976889e8bab47/AndroidManifest.xml:20:5-22:41
MERGED from [android.arch.lifecycle:runtime:1.0.0] /Users/tdkhoa/.gradle/caches/transforms-1/files-1.1/runtime-1.0.0.aar/d4587689addb9086008976889e8bab47/AndroidManifest.xml:20:5-22:41
INJECTED from /Users/tdkhoa/Documents/Android/Kotlin/Examples/geofencing-api/app/src/main/AndroidManifest.xml
INJECTED from /Users/tdkhoa/Documents/Android/Kotlin/Examples/geofencing-api/app/src/main/AndroidManifest.xml
	tools:overrideLibrary
		ADDED from [com.android.support:design:26.1.0] /Users/tdkhoa/.gradle/caches/transforms-1/files-1.1/design-26.1.0.aar/e50e783500a3bf5c20be85150e867091/AndroidManifest.xml:23:9-59
	android:targetSdkVersion
		INJECTED from /Users/tdkhoa/Documents/Android/Kotlin/Examples/geofencing-api/app/src/main/AndroidManifest.xml
		ADDED from /Users/tdkhoa/Documents/Android/Kotlin/Examples/geofencing-api/app/src/main/AndroidManifest.xml
		INJECTED from /Users/tdkhoa/Documents/Android/Kotlin/Examples/geofencing-api/app/src/main/AndroidManifest.xml
	android:minSdkVersion
		INJECTED from /Users/tdkhoa/Documents/Android/Kotlin/Examples/geofencing-api/app/src/main/AndroidManifest.xml
		ADDED from /Users/tdkhoa/Documents/Android/Kotlin/Examples/geofencing-api/app/src/main/AndroidManifest.xml
		INJECTED from /Users/tdkhoa/Documents/Android/Kotlin/Examples/geofencing-api/app/src/main/AndroidManifest.xml
meta-data#android.support.VERSION
ADDED from [com.android.support:design:26.1.0] /Users/tdkhoa/.gradle/caches/transforms-1/files-1.1/design-26.1.0.aar/e50e783500a3bf5c20be85150e867091/AndroidManifest.xml:26:9-28:38
MERGED from [com.android.support:appcompat-v7:26.1.0] /Users/tdkhoa/.gradle/caches/transforms-1/files-1.1/appcompat-v7-26.1.0.aar/0a04abc31b7bf5c5a01d989192abc156/AndroidManifest.xml:26:9-28:38
MERGED from [com.android.support:appcompat-v7:26.1.0] /Users/tdkhoa/.gradle/caches/transforms-1/files-1.1/appcompat-v7-26.1.0.aar/0a04abc31b7bf5c5a01d989192abc156/AndroidManifest.xml:26:9-28:38
MERGED from [com.android.support:animated-vector-drawable:26.1.0] /Users/tdkhoa/.gradle/caches/transforms-1/files-1.1/animated-vector-drawable-26.1.0.aar/4d771d6145e1c26aeb3a5bf28a46f89d/AndroidManifest.xml:23:9-25:38
MERGED from [com.android.support:animated-vector-drawable:26.1.0] /Users/tdkhoa/.gradle/caches/transforms-1/files-1.1/animated-vector-drawable-26.1.0.aar/4d771d6145e1c26aeb3a5bf28a46f89d/AndroidManifest.xml:23:9-25:38
MERGED from [com.android.support:support-vector-drawable:26.1.0] /Users/tdkhoa/.gradle/caches/transforms-1/files-1.1/support-vector-drawable-26.1.0.aar/e77e1bccfa99be20c72f591a6568abe1/AndroidManifest.xml:23:9-25:38
MERGED from [com.android.support:support-vector-drawable:26.1.0] /Users/tdkhoa/.gradle/caches/transforms-1/files-1.1/support-vector-drawable-26.1.0.aar/e77e1bccfa99be20c72f591a6568abe1/AndroidManifest.xml:23:9-25:38
MERGED from [com.android.support:recyclerview-v7:26.1.0] /Users/tdkhoa/.gradle/caches/transforms-1/files-1.1/recyclerview-v7-26.1.0.aar/f2834b297f53872c02ced7217c6bb02c/AndroidManifest.xml:23:9-25:38
MERGED from [com.android.support:recyclerview-v7:26.1.0] /Users/tdkhoa/.gradle/caches/transforms-1/files-1.1/recyclerview-v7-26.1.0.aar/f2834b297f53872c02ced7217c6bb02c/AndroidManifest.xml:23:9-25:38
MERGED from [com.android.support:transition:26.1.0] /Users/tdkhoa/.gradle/caches/transforms-1/files-1.1/transition-26.1.0.aar/5ee3cc03e46ac92e7904873a1d8fc981/AndroidManifest.xml:23:9-25:38
MERGED from [com.android.support:transition:26.1.0] /Users/tdkhoa/.gradle/caches/transforms-1/files-1.1/transition-26.1.0.aar/5ee3cc03e46ac92e7904873a1d8fc981/AndroidManifest.xml:23:9-25:38
MERGED from [com.android.support:support-v4:26.1.0] /Users/tdkhoa/.gradle/caches/transforms-1/files-1.1/support-v4-26.1.0.aar/3b5c1ff3f0413d13edac067bf2a91504/AndroidManifest.xml:26:9-28:38
MERGED from [com.android.support:support-v4:26.1.0] /Users/tdkhoa/.gradle/caches/transforms-1/files-1.1/support-v4-26.1.0.aar/3b5c1ff3f0413d13edac067bf2a91504/AndroidManifest.xml:26:9-28:38
MERGED from [com.android.support:support-media-compat:26.1.0] /Users/tdkhoa/.gradle/caches/transforms-1/files-1.1/support-media-compat-26.1.0.aar/1469537dc5d0d1061557114c0d4f2f78/AndroidManifest.xml:26:9-28:38
MERGED from [com.android.support:support-media-compat:26.1.0] /Users/tdkhoa/.gradle/caches/transforms-1/files-1.1/support-media-compat-26.1.0.aar/1469537dc5d0d1061557114c0d4f2f78/AndroidManifest.xml:26:9-28:38
MERGED from [com.android.support:support-fragment:26.1.0] /Users/tdkhoa/.gradle/caches/transforms-1/files-1.1/support-fragment-26.1.0.aar/63fc2e08cc2279c532535ae2c66f8cfd/AndroidManifest.xml:26:9-28:38
MERGED from [com.android.support:support-fragment:26.1.0] /Users/tdkhoa/.gradle/caches/transforms-1/files-1.1/support-fragment-26.1.0.aar/63fc2e08cc2279c532535ae2c66f8cfd/AndroidManifest.xml:26:9-28:38
MERGED from [com.android.support:support-core-utils:26.1.0] /Users/tdkhoa/.gradle/caches/transforms-1/files-1.1/support-core-utils-26.1.0.aar/0cb08d3c3ab8870f63173ecbcff91ca9/AndroidManifest.xml:26:9-28:38
MERGED from [com.android.support:support-core-utils:26.1.0] /Users/tdkhoa/.gradle/caches/transforms-1/files-1.1/support-core-utils-26.1.0.aar/0cb08d3c3ab8870f63173ecbcff91ca9/AndroidManifest.xml:26:9-28:38
MERGED from [com.android.support:support-core-ui:26.1.0] /Users/tdkhoa/.gradle/caches/transforms-1/files-1.1/support-core-ui-26.1.0.aar/f7161f5d3da7926b05a4a455e11a053b/AndroidManifest.xml:26:9-28:38
MERGED from [com.android.support:support-core-ui:26.1.0] /Users/tdkhoa/.gradle/caches/transforms-1/files-1.1/support-core-ui-26.1.0.aar/f7161f5d3da7926b05a4a455e11a053b/AndroidManifest.xml:26:9-28:38
MERGED from [com.android.support:support-compat:26.1.0] /Users/tdkhoa/.gradle/caches/transforms-1/files-1.1/support-compat-26.1.0.aar/746d2ebc2f27bfccb8c633309c2548b9/AndroidManifest.xml:26:9-28:38
MERGED from [com.android.support:support-compat:26.1.0] /Users/tdkhoa/.gradle/caches/transforms-1/files-1.1/support-compat-26.1.0.aar/746d2ebc2f27bfccb8c633309c2548b9/AndroidManifest.xml:26:9-28:38
	android:value
		ADDED from [com.android.support:design:26.1.0] /Users/tdkhoa/.gradle/caches/transforms-1/files-1.1/design-26.1.0.aar/e50e783500a3bf5c20be85150e867091/AndroidManifest.xml:28:13-35
	android:name
		ADDED from [com.android.support:design:26.1.0] /Users/tdkhoa/.gradle/caches/transforms-1/files-1.1/design-26.1.0.aar/e50e783500a3bf5c20be85150e867091/AndroidManifest.xml:27:13-51
uses-permission#android.permission.ACCESS_NETWORK_STATE
ADDED from [com.google.android.gms:play-services-maps:16.0.0] /Users/tdkhoa/.gradle/caches/transforms-1/files-1.1/play-services-maps-16.0.0.aar/3cdbee4b24582b46f6c97f8e2328bf33/AndroidManifest.xml:23:5-79
	android:name
		ADDED from [com.google.android.gms:play-services-maps:16.0.0] /Users/tdkhoa/.gradle/caches/transforms-1/files-1.1/play-services-maps-16.0.0.aar/3cdbee4b24582b46f6c97f8e2328bf33/AndroidManifest.xml:23:22-76
uses-feature#0x00020000
ADDED from [com.google.android.gms:play-services-maps:16.0.0] /Users/tdkhoa/.gradle/caches/transforms-1/files-1.1/play-services-maps-16.0.0.aar/3cdbee4b24582b46f6c97f8e2328bf33/AndroidManifest.xml:26:5-28:35
	android:glEsVersion
		ADDED from [com.google.android.gms:play-services-maps:16.0.0] /Users/tdkhoa/.gradle/caches/transforms-1/files-1.1/play-services-maps-16.0.0.aar/3cdbee4b24582b46f6c97f8e2328bf33/AndroidManifest.xml:27:9-41
	android:required
		ADDED from [com.google.android.gms:play-services-maps:16.0.0] /Users/tdkhoa/.gradle/caches/transforms-1/files-1.1/play-services-maps-16.0.0.aar/3cdbee4b24582b46f6c97f8e2328bf33/AndroidManifest.xml:28:9-32
activity#com.google.android.gms.common.api.GoogleApiActivity
ADDED from [com.google.android.gms:play-services-base:16.0.1] /Users/tdkhoa/.gradle/caches/transforms-1/files-1.1/play-services-base-16.0.1.aar/7b4b34697835dab76bdf2aa35a283170/AndroidManifest.xml:23:9-26:75
	android:exported
		ADDED from [com.google.android.gms:play-services-base:16.0.1] /Users/tdkhoa/.gradle/caches/transforms-1/files-1.1/play-services-base-16.0.1.aar/7b4b34697835dab76bdf2aa35a283170/AndroidManifest.xml:25:13-37
	android:theme
		ADDED from [com.google.android.gms:play-services-base:16.0.1] /Users/tdkhoa/.gradle/caches/transforms-1/files-1.1/play-services-base-16.0.1.aar/7b4b34697835dab76bdf2aa35a283170/AndroidManifest.xml:26:13-72
	android:name
		ADDED from [com.google.android.gms:play-services-base:16.0.1] /Users/tdkhoa/.gradle/caches/transforms-1/files-1.1/play-services-base-16.0.1.aar/7b4b34697835dab76bdf2aa35a283170/AndroidManifest.xml:24:13-79
meta-data#com.google.android.gms.version
ADDED from [com.google.android.gms:play-services-basement:16.0.1] /Users/tdkhoa/.gradle/caches/transforms-1/files-1.1/play-services-basement-16.0.1.aar/a71b2b3ec89e8f26916301af30afdcc0/AndroidManifest.xml:23:9-25:69
	android:value
		ADDED from [com.google.android.gms:play-services-basement:16.0.1] /Users/tdkhoa/.gradle/caches/transforms-1/files-1.1/play-services-basement-16.0.1.aar/a71b2b3ec89e8f26916301af30afdcc0/AndroidManifest.xml:25:13-66
	android:name
		ADDED from [com.google.android.gms:play-services-basement:16.0.1] /Users/tdkhoa/.gradle/caches/transforms-1/files-1.1/play-services-basement-16.0.1.aar/a71b2b3ec89e8f26916301af30afdcc0/AndroidManifest.xml:24:13-58
meta-data#android.arch.lifecycle.VERSION
ADDED from [android.arch.lifecycle:runtime:1.0.0] /Users/tdkhoa/.gradle/caches/transforms-1/files-1.1/runtime-1.0.0.aar/d4587689addb9086008976889e8bab47/AndroidManifest.xml:25:9-27:47
	android:value
		ADDED from [android.arch.lifecycle:runtime:1.0.0] /Users/tdkhoa/.gradle/caches/transforms-1/files-1.1/runtime-1.0.0.aar/d4587689addb9086008976889e8bab47/AndroidManifest.xml:27:13-44
	android:name
		ADDED from [android.arch.lifecycle:runtime:1.0.0] /Users/tdkhoa/.gradle/caches/transforms-1/files-1.1/runtime-1.0.0.aar/d4587689addb9086008976889e8bab47/AndroidManifest.xml:26:13-58
